{
  "$project": {
    "_id": 0,
    "rating": 1,
    "androguard.activities": 1,
    "androguard.filters": 1,
    "androguard.libraries": 1,
    "androguard.new_permissions": 1,
    "androguard.permissions": 1,
    "androguard.providers": 1,
    "androguard.receivers": 1,
    "androguard.services": 1
  }
}